﻿{
    "employee": [

		{
		    "EmployeeName": "ABCD",
		    "EmployeeId": "VLS1234",
		    "UserKey":"2",
		    "UniqueId": "11",
		    "Projects": "WebMD",
		    "Billable_Status": "Yes",
		    "Billable_Projects": "",
		    "Contact": "",
		    "Band": "C1",
		    "Salary": "",
		    "Skill_Set": "Java",
		    "Reporting_Lead": "XYZ",
		    "Reporting_Manager": "",
		    "DOB": "",
		    "DOJ": "",
		    "Experience": "9",
		    "Location_Details": "",
		    "employeelist": [{
		        "EmployeeName": "ABCDEF",
		        "EmployeeId": "VLS1114",
		        "UniqueId": "203",
		        "UserKey":"0",
		        "Projects": "WebMD",
		        "Billable_Status": "Yes",
		        "Billable_Projects": "",
		        "Contact": "",
		        "Band": "B1",
		        "Salary": "",
		        "Skill Set": "Java",
		        "Reporting_Lead": "",
		        "Reporting_Manager": "",
		        "DOB": "",
		        "DOJ": "",
		        "Experience": "",
		        "Location_Details": ""
		    }, {
		        "EmployeeName": "ABCD",
		        "EmployeeId": "3124",
		        "UniqueId": "134",
		        "UserKey":"0",
		        "Projects": "WebMD",
		        "Billable_Status": "Yes",
		        "Billable_Projects": "",
		        "Contact": "",
		        "Band": "B1",
		        "Salary": "",
		        "Skill_Set": "Java",
		        "Reporting_Lead": "",
		        "Reporting_Manager": "",
		        "DOB": "",
		        "DOJ": "",
		        "Experience": "",
		        "Location_Details": ""
		    }]
		}, {
		    "EmployeeName": "ABCD",
		    "EmployeeId": "VLS1100",
		    "UniqueId": "42",
		    "UserKey":"2",
		    "Projects": "Celgene",
		    "Billable_Status": "Yes",
		    "Billable_Projects": "",
		    "Contact": "",
		    "Band": "C1",
		    "Salary": "",
		    "Skill_Set": "Java",
		    "Reporting_Lead": "",
		    "Reporting_Manager": "",
		    "DOB": "",
		    "DOJ": "",
		    "Experience": "",
		    "Location_Details": "",
		    "employeelist": [{
		        "EmployeeName": "ABCD",
		        "EmployeeId": "9234",
		        "UniqueId": "532",
		        "UserKey":"0",
		        "Projects": "WebMD",
		        "Billable_Status": "Yes",
		        "Billable_Projects": "",
		        "Contact": "",
		        "Band": "A3",
		        "Salary": "",
		        "Skill_Set": "Java",
		        "Reporting_Lead": "",
		        "Reporting_Manager": "",
		        "DOB": "",
		        "DOJ": "",
		        "Experience": "",
		        "Location_Details": ""
		    }, {
		        "EmployeeName": "JSDK",
		        "ABCD ": "",
		        "EmployeeId": "VLS4321",
		        "UniqueId": "1111",
		        "UserKey":"0",
		        "Projects": "WebMD",
		        "Billable_Status": "Yes",
		        "Billable_Projects": "",
		        "Contact": "",
		        "Band": "A2",
		        "Salary": "",
		        "Skill_Set": "Java",
		        "Reporting_Lead": "",
		        "Reporting_Manager": "",
		        "DOB": "",
		        "DOJ": "",
		        "Experience": "",
		        "Location_Details": ""
		    }]
		}, {

		    "EmployeeName": "ABCD",
		    "EmployeeId": "2434",
		    "UniqueId": "30",
		    "UserKey":"1",
		    "Projects": "WebMD",
		    "Billable Status": "Yes",
		    "Billable Projects": "",
		    "Contact": "",
		    "Band": "C2",
		    "Salary": "",
		    "Skill Set": ".NET",
		    "Reporting_Lead": "",
		    "Reporting_Manager": "",
		    "DOB": "",
		    "DOJ": "",
		    "Experience": "",
		    "Location_Details": "",
		    "employeelist": [{
		        "EmployeeName": "ABswwCD",
		        "EmployeeId": "2234",
		        "UserKey":"0",
		        "UniqueId": "421",
		        "Projects": "WebMD",
		        "Billable_Status": "Yes",
		        "Billable_Projects": "",
		        "Contact": "",
		        "Band": "A2",
		        "Salary": "",
		        "Skill_Set": "Java",
		        "Reporting_Lead": "",
		        "Reporting_Manager": "",
		        "DOB": "",
		        "DOJ": "",
		        "Experience": "",
		        "Location_Details": ""
		    }]
		}, {
		    "EmployeeName": "ZASD",
		    "EmployeeId": "6894",
		    "UniqueId": "112",
		    "UserKey":"0",
		    "Projects": "WebMD",
		    "Billable Status": "Yes",
		    "Billable Projects": "",
		    "Contact": "",
		    "Band": "B1",
		    "Salary": "",
		    "Skill Set": "BI",
		    "Reporting_Lead": "",
		    "Reporting_Manager": "",
		    "DOB": "",
		    "DOJ": "",
		    "Experience": "",
		    "Location_Details": "",
		    "employeelist": null
		}, {
		    "EmployeeName": "NMWE",
		    "EmployeeId": "9054",
		    "UniqueId": "932",
		    "UserKey":"0",
		    "Projects": "WebMD",
		    "Billable Status": "Yes",
		    "Billable Projects": "",
		    "Contact": "",
		    "Band": "A3",
		    "Salary": "",
		    "Skill Set": "Python",
		    "Reporting_Lead": "",
		    "Reporting_Manager": "",
		    "DOB": "",
		    "DOJ": "",
		    "Experience": "",
		    "Location_Details": "",
		    "employeelist": null
		}
    ]
}